D:\С++\Homework\skillboxhomeworkcpp\HomeworcMain.cpp;D:\С++\Homework\skillboxhomeworkcpp\HomeworcMain\x64\Debug\HomeworcMain.obj
D:\С++\Homework\skillboxhomeworkcpp\Homework.cpp;D:\С++\Homework\skillboxhomeworkcpp\HomeworcMain\x64\Debug\Homework.obj
D:\С++\Homework\skillboxhomeworkcpp\Hw13.4\Hw13_4.cpp;D:\С++\Homework\skillboxhomeworkcpp\HomeworcMain\x64\Debug\Hw13_4.obj
D:\С++\Homework\skillboxhomeworkcpp\Hw14.4\Hw14_4.cpp;D:\С++\Homework\skillboxhomeworkcpp\HomeworcMain\x64\Debug\Hw14_4.obj
D:\С++\Homework\skillboxhomeworkcpp\Hw15.4\Hw15_4.cpp;D:\С++\Homework\skillboxhomeworkcpp\HomeworcMain\x64\Debug\Hw15_4.obj
D:\С++\Homework\skillboxhomeworkcpp\Hw16.5\Hw16_5.cpp;D:\С++\Homework\skillboxhomeworkcpp\HomeworcMain\x64\Debug\Hw16_5.obj
D:\С++\Homework\skillboxhomeworkcpp\Hw17.5\Hw17_5.cpp;D:\С++\Homework\skillboxhomeworkcpp\HomeworcMain\x64\Debug\Hw17_5.obj
D:\С++\Homework\skillboxhomeworkcpp\Hw18.5\Hw18_5.cpp;D:\С++\Homework\skillboxhomeworkcpp\HomeworcMain\x64\Debug\Hw18_5.obj
D:\С++\Homework\skillboxhomeworkcpp\Hw19.5\Hw19_5.cpp;D:\С++\Homework\skillboxhomeworkcpp\HomeworcMain\x64\Debug\Hw19_5.obj
D:\С++\Homework\skillboxhomeworkcpp\MyMetod.cpp;D:\С++\Homework\skillboxhomeworkcpp\HomeworcMain\x64\Debug\MyMetod.obj
