^D:\С++\HOMEWORK\SKILLBOXHOMEWORKCPP\HOMEWORCMAIN\X64\DEBUG\HOMEWORCMAIN.OBJ|D:\С++\HOMEWORK\SKILLBOXHOMEWORKCPP\HOMEWORCMAIN\X64\DEBUG\HOMEWORK.OBJ|D:\С++\HOMEWORK\SKILLBOXHOMEWORKCPP\HOMEWORCMAIN\X64\DEBUG\HW13_4.OBJ|D:\С++\HOMEWORK\SKILLBOXHOMEWORKCPP\HOMEWORCMAIN\X64\DEBUG\HW14_4.OBJ|D:\С++\HOMEWORK\SKILLBOXHOMEWORKCPP\HOMEWORCMAIN\X64\DEBUG\HW15_4.OBJ|D:\С++\HOMEWORK\SKILLBOXHOMEWORKCPP\HOMEWORCMAIN\X64\DEBUG\HW16_5.OBJ|D:\С++\HOMEWORK\SKILLBOXHOMEWORKCPP\HOMEWORCMAIN\X64\DEBUG\HW17_5.OBJ|D:\С++\HOMEWORK\SKILLBOXHOMEWORKCPP\HOMEWORCMAIN\X64\DEBUG\HW18_5.OBJ|D:\С++\HOMEWORK\SKILLBOXHOMEWORKCPP\HOMEWORCMAIN\X64\DEBUG\HW19_5.OBJ|D:\С++\HOMEWORK\SKILLBOXHOMEWORKCPP\HOMEWORCMAIN\X64\DEBUG\MYMETOD.OBJ
D:\С++\HOMEWORK\SKILLBOXHOMEWORKCPP\X64\DEBUG\HOMEWORCMAIN.EXE
D:\С++\HOMEWORK\SKILLBOXHOMEWORKCPP\X64\DEBUG\HOMEWORCMAIN.PDB
